{
  "_class": "group",
  "do_objectID": "7270132D-F628-4F70-A06E-94DA8B968BA1",
  "exportOptions": {
    "_class": "exportOptions",
    "exportFormats": [
    ],
    "includedLayerIds": [
    ],
    "layerOptions": 0,
    "shouldTrim": false
  },
  "frame": {
    "_class": "rect",
    "constrainProportions": false,
    "height": 24,
    "width": 50,
    "x": 787.5999999999999,
    "y": 8
  },
  "hasClickThrough": false,
  "isFlippedHorizontal": false,
  "isFlippedVertical": false,
  "isLocked": false,
  "isVisible": true,
  "layerListExpandedType": 2,
  "layers": [
    {
      "class": "shapeGroup",
      "id": "F88B5577-BC39-46CD-AD62-019D0A156E2C"
    },
    {
      "class": "group",
      "id": "E91B0BA8-CD67-4793-BAC9-AC53A2F32694"
    },
    {
      "class": "text",
      "id": "AC4F29B1-E9D3-4169-B844-4AB84C5AD685"
    }
  ],
  "name": "global-components/labels/issuable-label/default",
  "nameIsFixed": false,
  "resizingConstraint": 63,
  "resizingType": 0,
  "rotation": 0,
  "shouldBreakMaskChain": false,
  "style": {
    "_class": "style",
    "endDecorationType": 0,
    "miterLimit": 10,
    "startDecorationType": 0
  }
}